Assignment1
…
(table2_dup <- table2[table2$country == table2_count$country,]) # or replace == by %in%

## # A tibble: 2 x 3
##   country invasion_cost_threatCountry  rank
##   <chr>                         <dbl> <dbl>
## 1 Guinea                    977500000    60
## 2 Guinea                    114300000   107

# 1 duplicated country: Guinea
(table2_nodup <- distinct(table2, country, .keep_all=T)) # keep 1 copy of Guinea

## # A tibble: 123 x 3
##    country   invasion_cost_threatCountry  rank
##    <chr>                           <dbl> <dbl>
##  1 China                    117290000000     1
##  2 USA                       70381000000     2
##  3 Brazil                    33760000000     3
##  4 India                     33065000000     4
##  5 Japan                     23490000000     5
##  6 Korea                     14349000000     6
##  7 Turkey                    13267000000     7
##  8 Argentina                 13204000000     8
##  9 France                    12532000000     9
## 10 Mexico                    11277000000    10
## # ... with 113 more rows

(table2_nodup <- table2[!table2$country == table2_count$country,]) # remove both copy of Guinea

## # A tibble: 122 x 3
##    country   invasion_cost_threatCountry  rank
##    <chr>                           <dbl> <dbl>
##  1 China                    117290000000     1
##  2 USA                       70381000000     2
##  3 Brazil                    33760000000     3
##  4 India                     33065000000     4
##  5 Japan                     23490000000     5
##  6 Korea                     14349000000     6
##  7 Turkey                    13267000000     7
##  8 Argentina                 13204000000     8
##  9 France                    12532000000     9
## 10 Mexico                    11277000000    10
## # ... with 112 more rows
…
(table3_dup <- table3[table3$country == table3_count$country,]) # or replace == by %in%

## # A tibble: 2 x 5
##   country invasion_cost   gdp_mean gdp_proportion  rank
##   <chr>           <dbl>      <dbl>          <dbl> <dbl>
## 1 Guinea      978000000 3380000000          0.289     3
## 2 Guinea      114000000  513000000          0.223     4

# 1 duplicated country: Guinea
(table3_nodup <- table3[table3$country != table3_count$country,])

## # A tibble: 122 x 5
##    country    invasion_cost    gdp_mean gdp_proportion  rank
##    <chr>              <dbl>       <dbl>          <dbl> <dbl>
##  1 Malawi        1071000000  3000000000          0.357     1
##  2 Burundi        398000000  1121000000          0.355     2
##  3 Mozambique    1218000000  6423000000          0.190     5
##  4 Madagascar    1074000000  5842000000          0.184     6
##  5 Cambodia      1121000000  6487000000          0.173     7
##  6 Nepal         1411000000  8411000000          0.168     8
##  7 Laos           508000000  3134000000          0.162     9
##  8 Ethiopia      2312000000 14344000000          0.161    10
##  9 Vietnam       7490000000 55702000000          0.134    11
## 10 Moldova        388000000  3130000000          0.124    12
## # ... with 112 more rows
…
(table4_dup <- table4[table4$country == table4_count$country,]) # or replace == by %in%

## # A tibble: 2 x 3
##   country invasion_cost_sourceCountry  rank
##   <chr>                         <dbl> <dbl>
## 1 Guinea                     47400000    97
## 2 Guinea                      1800000   122

# 1 duplicated country: Guinea
(table4_nodup <- table4[table4$country != table4_count$country,])

## # A tibble: 122 x 3
##    country invasion_cost_sourceCountry  rank
##    <chr>                         <dbl> <dbl>
##  1 China                  222590000000     1
##  2 USA                    181730000000     2
##  3 Japan                  120750000000     3
##  4 Germany                 85864000000     4
##  5 Italy                   44228000000     5
##  6 France                  38159000000     6
##  7 Korea                   37620000000     7
##  8 India                   36913000000     8
##  9 Russian                 34336000000     9
## 10 United                  25670000000    10
## # ... with 112 more rows
…
